Introduction to data
…
## Warning: `lang()` is deprecated as of rlang 0.2.0.
## Please use `call2()` instead.
## This warning is displayed once per session.

## Warning: `new_overscope()` is deprecated as of rlang 0.2.0.
## Please use `new_data_mask()` instead.
## This warning is displayed once per session.

## Warning: `overscope_eval_next()` is deprecated as of rlang 0.2.0.
## Please use `eval_tidy()` with a data mask instead.
## This warning is displayed once per session.

df

## # A tibble: 32,735 x 2
##    avg_speed_hour tailnum
##             <dbl> <chr>  
##  1           703. N666DN 
##  2           557. N779JB 
##  3           554. N571JB 
##  4           548. N568JB 
##  5           548. N5EHAA 
##  6           548. N656JB 
##  7           545. N789JB 
##  8           539. N516JB 
##  9           536. N648JB 
## 10           536. N510JB 
## # ... with 32,725 more rows
…
